{
    "Users": [{
        "id": 0,
        "name": "Mahatma Gandhi",
        "username": "gandaddy",
        "email": "jdoe@university.edu",
        "phone": "5552425677",
        "facebookId": 123,
        "twiiterId": 123,
        "googleId": 123,
        "courses": [{
            "id": 0,
            "university": {
                "id": 0
            },
            "name": "Data Structures and Algorithims",
            "subject": "COSC",
            "number": 302,
            "shortName": "COSC 302",
            "users": [{
                "id": 0,
                "name": "Mahatma Gandhi",
                "username": "gandaddy",
                "email": "jdoe@university.edu",
                "phone": "5552425677",
                "facebookId": 123,
                "twiiterId": 123,
                "googleId": 123,
                "courses": [],
                "studyTeams": [],
                "studySessions": [],
                "university": "UTK",
                "settings": {
                    "key": "val"
                }
            }],
            "catalogCode": 1234,
            "messageBoard": {
                "id": 0
            },
            "beginDate": "2015-08-20",
            "endDate": "2015-12-10"
        }],
        "studyTeams": [],
        "studySessions": [],
        "university": "UTK",
        "settings": {
            "key": "val"
        }
    }, {
        "id": 1,
        "name": "Marilyn Monroe",
        "username": "marbear",
        "email": "jdoe@university.edu",
        "phone": "5552425677",
        "facebookId": 123,
        "twiiterId": 123,
        "googleId": 123,
        "courses": [{
            "id": 1,
            "university": {
                "id": 1
            },
            "name": "Data Structures and Algorithims",
            "subject": "COSC",
            "number": 302,
            "shortName": "COSC 302",
            "users": [{
                "id": 4,
                "name": "John F. Kennedy",
                "username": "jdoe",
                "email": "jdoe@university.edu",
                "phone": "5552425677",
                "facebookId": 123,
                "twiiterId": 123,
                "googleId": 123,
                "courses": [],
                "studyTeams": [],
                "studySessions": [],
                "university": "UTK",
                "settings": {
                    "key": "val"
                }
            }],
            "catalogCode": 1234,
            "messageBoard": {
                "id": 0
            },
            "beginDate": "2015-08-20",
            "endDate": "2015-12-10"
        }],
        "studyTeams": [],
        "studySessions": [],
        "university": "UTK",
        "settings": {
            "key": "val"
        }
    }, {
        "id": 2,
        "name": "Abraham Lincoln",
        "username": "ihateslaves",
        "email": "jdoe@university.edu",
        "phone": "5552425677",
        "facebookId": 123,
        "twiiterId": 123,
        "googleId": 123,
        "courses": [{
            "id": 1,
            "university": {
                "id": 1
            },
            "name": "Data Structures and Algorithims",
            "subject": "COSC",
            "number": 302,
            "shortName": "COSC 302",
            "users": [{
                "id": 4,
                "name": "John F. Kennedy",
                "username": "jdoe",
                "email": "jdoe@university.edu",
                "phone": "5552425677",
                "facebookId": 123,
                "twiiterId": 123,
                "googleId": 123,
                "courses": [],
                "studyTeams": [],
                "studySessions": [],
                "university": "UTK",
                "settings": {
                    "key": "val"
                }
            }],
            "catalogCode": 1234,
            "messageBoard": {
                "id": 0
            },
            "beginDate": "2015-08-20",
            "endDate": "2015-12-10"
        }],
        "studyTeams": [],
        "studySessions": [],
        "university": "UTK",
        "settings": {
            "key": "val"
        }
    }, {
        "id": 3,
        "name": "Mother Teresa",
        "username": "motherT",
        "email": "jdoe@university.edu",
        "phone": "5552425677",
        "facebookId": 123,
        "twiiterId": 123,
        "googleId": 123,
        "courses": [{
            "id": 0,
            "university": {
                "id": 0
            },
            "name": "Data Structures and Algorithims",
            "subject": "COSC",
            "number": 302,
            "shortName": "COSC 302",
            "users": [{
                "id": 0,
                "name": "Mahatma Gandhi",
                "username": "gandaddy",
                "email": "jdoe@university.edu",
                "phone": "5552425677",
                "facebookId": 123,
                "twiiterId": 123,
                "googleId": 123,
                "courses": [],
                "studyTeams": [],
                "studySessions": [],
                "university": "UTK",
                "settings": {
                    "key": "val"
                }
            }],
            "beginDate": "2015-08-20",
            "endDate": "2015-12-10"
        }],
        "studyTeams": [],
        "studySessions": [],
        "university": "UTK",
        "settings": {
            "key": "val"
        }
    }, {
        "id": 4,
        "name": "John F. Kennedy",
        "username": "jdoe",
        "email": "jdoe@university.edu",
        "phone": "5552425677",
        "facebookId": 123,
        "twiiterId": 123,
        "googleId": 123,
        "courses": [{
            "id": 0,
            "university": {
                "id": 0
            },
            "name": "Data Structures and Algorithims",
            "subject": "COSC",
            "number": 302,
            "shortName": "COSC 302",
            "users": [{
                "id": 0,
                "name": "Mahatma Gandhi",
                "username": "gandaddy",
                "email": "jdoe@university.edu",
                "phone": "5552425677",
                "facebookId": 123,
                "twiiterId": 123,
                "googleId": 123,
                "courses": [],
                "studyTeams": [],
                "studySessions": [],
                "university": "UTK",
                "settings": {
                    "key": "val"
                }
            }],
            "beginDate": "2015-08-20",
            "endDate": "2015-12-10"
        }],
        "studyTeams": [],
        "studySessions": [],
        "university": "UTK",
        "settings": {
            "key": "val"
        }
    }, {
        "id": 5,
        "name": "Martin Luther King",
        "username": "mlk",
        "email": "jdoe@university.edu",
        "phone": "5552425677",
        "facebookId": 123,
        "twiiterId": 123,
        "googleId": 123,
        "courses": [{
            "id": 1,
            "university": {
                "id": 1
            },
            "name": "Data Structures and Algorithims",
            "subject": "COSC",
            "number": 302,
            "shortName": "COSC 302",
            "users": [{
                "id": 4,
                "name": "John F. Kennedy",
                "username": "jdoe",
                "email": "jdoe@university.edu",
                "phone": "5552425677",
                "facebookId": 123,
                "twiiterId": 123,
                "googleId": 123,
                "courses": [],
                "studyTeams": [],
                "studySessions": [],
                "university": "UTK",
                "settings": {
                    "key": "val"
                }
            }],
            "catalogCode": 1234,
            "messageBoard": {
                "id": 0
            },
            "beginDate": "2015-08-20",
            "endDate": "2015-12-10"
        }],
        "studyTeams": [],
        "studySessions": [],
        "university": "UTK",
        "settings": {
            "key": "val"
        }
    }, {
        "id": 6,
        "name": "Winston Churchill",
        "username": "wchurch007",
        "email": "jdoe@university.edu",
        "phone": "5552425677",
        "facebookId": 123,
        "twiiterId": 123,
        "googleId": 123,
        "courses": [{
            "id": 1,
            "university": {
                "id": 1
            },
            "name": "Data Structures and Algorithims",
            "subject": "COSC",
            "number": 302,
            "shortName": "COSC 302",
            "users": [{
                "id": 4,
                "name": "John F. Kennedy",
                "username": "jdoe",
                "email": "jdoe@university.edu",
                "phone": "5552425677",
                "facebookId": 123,
                "twiiterId": 123,
                "googleId": 123,
                "courses": [],
                "studyTeams": [],
                "studySessions": [],
                "university": "UTK",
                "settings": {
                    "key": "val"
                }
            }],
            "catalogCode": 1234,
            "messageBoard": {
                "id": 0
            },
            "beginDate": "2015-08-20",
            "endDate": "2015-12-10"
        }],
        "studyTeams": [],
        "studySessions": [],
        "university": "UTK",
        "settings": {
            "key": "val"
        }
    }, {
        "id": 7,
        "name": "Nelson Mandela",
        "username": "nelson_mandela",
        "email": "jdoe@university.edu",
        "phone": "5552425677",
        "facebookId": 123,
        "twiiterId": 123,
        "googleId": 123,
        "courses": [{
            "id": 0,
            "university": {
                "id": 0
            },
            "name": "Data Structures and Algorithims",
            "subject": "COSC",
            "number": 302,
            "shortName": "COSC 302",
            "users": [{
                "id": 0,
                "name": "Mahatma Gandhi",
                "username": "gandaddy",
                "email": "jdoe@university.edu",
                "phone": "5552425677",
                "facebookId": 123,
                "twiiterId": 123,
                "googleId": 123,
                "courses": [],
                "studyTeams": [],
                "studySessions": [],
                "university": "UTK",
                "settings": {
                    "key": "val"
                }
            }],
            "beginDate": "2015-08-20",
            "endDate": "2015-12-10"
        }],
        "studyTeams": [],
        "studySessions": [],
        "university": "UTK",
        "settings": {
            "key": "val"
        }
    }]
}